{
    "code": 201,
    "message": "Created successfully",
    "data": {
        "name": "sixaa",
        "description": "hello",
        "updated_at": "2019-10-14 09:06:03",
        "created_at": "2019-10-14 09:06:03",
        "id": 10
    }
}