{
  "code": 200,
  "message": "done",
  "data": [
    {
      "id": 1,
      "name": "List ",
      "description": "List  description",
      "suppliersCount": 2,
      "creationDate": "Oct 10th, 2019"
    },
    {
      "id": 2,
      "name": "List 2222",
      "description": "List  descriptionasdfasdf",
      "suppliersCount": 0,
      "creationDate": "Oct 10th, 2019"
    }
  ]
}
