{
  "code": 200,
  "message": "done",
  "data": [
    {
      "id": 1,
      "name": "request 1111111111",
      "activities": [
        "Committe deasdfasdfasdfscription",
        "two",
        "three",
        "four"
      ],
      "email": "asdf",
      "mobile": "23423443532453245"
    },
    {
      "id": 2,
      "name": "request 22222",
      "activities": ["Committe description", "two", "three", "four"],
      "email": "oneoneone",
      "mobile": "2345"
    },
    {
      "id": 3,
      "name": "333333",
      "activities": ["Committe description", "two", "three", "four"],
      "email": "oneoneone",
      "mobile": "55"
    },
    {
      "id": 4,
      "name": "Committe4444",
      "activities": ["Committe description", "two", "three", "four"],
      "email": "oneoneone",
      "mobile": "23452345234523453425"
    }
  ]
}
