{
    "code": 200,
    "message": "done",
    "data": [
        {
            "id": 1,
            "name": "Admin Sumed",
            "email": "admin@sumed.com",
            "mobile": "34234234324",
            "image": "https://pencil-designs.com/sumed/public/images/admins/default.jpg",
            "role_name": "admin"
        },
        {
            "id": 2,
            "name": "Sales",
            "email": "admin-sales@sumed.com",
            "mobile": "34234234324",
            "image": "https://pencil-designs.com/sumed/public/images/admins/default.jpg",
            "role_name": "sales"
        },
        {
            "id": 3,
            "name": "IT",
            "email": "admin-it@sumed.com",
            "mobile": "34234234324",
            "image": "https://pencil-designs.com/sumed/public/images/admins/default.jpg",
            "role_name": "it"
        }
    ]
}